timestamp,qfn01
2023-09-06 20:28:38.856471,111.50682067871094
2023-09-06 20:28:51.978031,111.51042938232422
2023-09-06 20:29:27.977590,123.69983673095703
2023-09-06 20:29:50.806069,123.70204162597656
2023-09-06 20:30:03.983017,123.6963882446289
2023-09-06 20:30:26.777091,123.69671630859375
2023-09-06 20:30:39.976125,123.70223999023438
2023-09-06 20:31:38.780882,135.49220275878906
2023-09-06 20:31:51.978987,135.48916625976562
2023-09-06 20:32:14.778989,135.49075317382812
2023-09-06 20:33:26.782648,146.97406005859375
2023-09-06 20:33:39.983782,146.96722412109375
2023-09-06 20:34:02.784280,146.96774291992188
2023-09-06 20:34:15.977938,146.9706573486328
2023-09-06 20:35:50.776967,158.20123291015625
2023-09-06 20:36:05.138119,158.20547485351562
2023-09-06 20:36:26.781054,158.19766235351562
2023-09-06 20:37:38.782308,169.24224853515625
2023-09-06 20:37:55.417156,169.24351501464844
2023-09-06 20:38:14.778321,169.24575805664062
2023-09-06 20:38:31.751149,169.2440948486328
2023-09-06 20:39:45.594832,180.12313842773438
2023-09-06 20:40:05.319131,180.12539672851562
2023-09-06 20:40:24.725137,180.1274871826172
2023-09-06 20:40:44.801513,180.12612915039062
2023-09-06 20:41:47.333825,190.8739776611328
2023-09-06 20:42:53.518819,201.52789306640625
2023-09-06 20:43:15.325348,201.52093505859375
